{
  "profiles": {
    "Kestrel Local": {
      "commandName": "Project",
      "environmentVariables": {
        "ASPNETCORE_ENVIRONMENT": "Local"
      },
      "applicationUrl": "http://localhost:8000"
    }
  }
}